Rogers Castro Migration Models with rcbayes
…
#>    variable   median     lower   upper
#>    <chr>       <dbl>     <dbl>   <dbl>
#>  1 a1        0.00439  0.000416  0.0111
#>  2 a2        0.0585   0.0485    0.0680
#>  3 a3        0.0200   0.0116    0.0288
#>  4 alpha1    0.752    0.0676    2.26  
#>  5 alpha2    0.190    0.148     0.238 
#>  6 alpha3    0.196    0.113     0.353 
#>  7 c         0.0202   0.0172    0.0219
#>  8 lambda2   0.139    0.116     0.169 
#>  9 lambda3   0.125    0.0861    0.191 
#> 10 mu2      25.0     23.1      26.9   
#> 11 mu3      64.8     62.9      66.8
rc_res[['fit_df']]
#> # A tibble: 81 × 6
#>      age   data median  lower  upper      diff_sq
#>    <int>  <dbl>  <dbl>  <dbl>  <dbl>        <dbl>
#>  1     0 0.0242 0.0245 0.0206 0.0311 0.0000000885
#>  2     1 0.0219 0.0221 0.0200 0.0251 0.0000000584
#>  3     2 0.0211 0.0212 0.0194 0.0235 0.0000000103
#>  4     3 0.0219 0.0208 0.0191 0.0227 0.00000122  
#>  5     4 0.0208 0.0206 0.0189 0.0224 0.0000000306
#>  6     5 0.0208 0.0205 0.0188 0.0222 0.000000109 
#>  7     6 0.0199 0.0204 0.0187 0.0220 0.000000257 
#>  8     7 0.0209 0.0204 0.0186 0.0220 0.000000219 
#>  9     8 0.0183 0.0204 0.0187 0.0220 0.00000430  
#> 10     9 0.0189 0.0205 0.0189 0.0220 0.00000266  
#> # … with 71 more rows
…
